{
  "id": "8CS74626VR0272423",
  "create_time": "2019-09-10T18:22:51Z",
  "update_time": "2019-09-10T18:22:51Z",
  "state": "completed",
  "amount": {
    "total": "1.00",
    "currency": "USD"
  },
  "refund_from_transaction_fee": {
    "currency": "USD",
    "value": "0.03"
  },
  "total_refunded_amount": {
    "currency": "USD",
    "value": "1.00"
  },
  "refund_from_received_amount": {
    "currency": "USD",
    "value": "0.97"
  },
  "sale_id": "0C210462VG654335A",
  "parent_payment": "PAYID-LV35YNY2P005190UN4143937",
  "invoice_number": "1568136246912",
  "links": [
    {
      "href": "https://api.sandbox.paypal.com/v1/payments/refund/8CS74626VR0272423",
      "rel": "self",
      "method": "GET"
    },
    {
      "href": "https://api.sandbox.paypal.com/v1/payments/payment/PAYID-LV35YNY2P005190UN4143937",
      "rel": "parent_payment",
      "method": "GET"
    },
    {
      "href": "https://api.sandbox.paypal.com/v1/payments/sale/0C210462VG654335A",
      "rel": "sale",
      "method": "GET"
    }
  ]
}